HOmics: Hierarchical modelling for omic data analyses
…
print(mod)

Object of class HOmics 
A hierarchical univariate model was fitted for each feature

Call: 
HOmics(data.matrix = omic.matrix, cond = as.factor(ob$obese), 
    z.matrix = Z, covar.matrix = covar.matrix)

Results can be extracted using attribute results

mod$results

[[1]]
# A tibble: 72 x 9
   feature     mean `2.5%`  `50%` `97.5%`  Rhat n.eff p.pos p.neg
   <chr>      <dbl>  <dbl>  <dbl>   <dbl> <dbl> <dbl> <dbl> <dbl>
 1 rs1004299  -0.04  -0.43 -0.03     0.34  1.01   928 0.434 0.566
 2 rs1013170  -0.07  -0.69 -0.07     0.52  1.01   209 0.414 0.586
 3 rs10521279 -0.08  -0.5  -0.08     0.35  1.01   575 0.355 0.645
 4 rs10521294  0.3   -0.4   0.290    0.99  1.03   129 0.792 0.208
 5 rs1108574  -0.02  -0.42 -0.03     0.42  1.02   591 0.450 0.550
 6 rs1112899  -0.13  -0.7  -0.15     0.51  1      160 0.337 0.663
 7 rs1125338  -0.21  -0.6  -0.21     0.18  1      849 0.158 0.842
 8 rs11639567 -0.44  -0.85 -0.44    -0.04  1.01   999 0.016 0.984
 9 rs11642776 -0.05  -0.82 -0.07     0.83  1       82 0.438 0.562
10 rs11859998  0.15  -0.67  0.13     1.16  1       68 0.603 0.397
# ... with 62 more rows
…
Object of class HOmics 
A hierarchical multivariate model was fitted for each group

Call: 
HOmics(data.matrix = omic.matrix, cond = as.factor(ob$obese), 
    z.matrix = Z, covar.matrix = covar.matrix, agg.matrix = agg.matrix)

If we want to assess more groups, it should be specified in the aggregation matrix, with groups in the rows and features in the columns.

The results are again provided as an HOmics object, and results show this time the coefficients for the multivariate model

mod.multiv$results

$g1
# A tibble: 72 x 9
   feature     mean `2.5%` `50%` `97.5%`  Rhat n.eff p.pos p.neg
   <chr>      <dbl>  <dbl> <dbl>   <dbl> <dbl> <dbl> <dbl> <dbl>
 1 rs1004299   0.09 -0.34   0.09    0.53  1.01   644 0.664 0.336
 2 rs1013170  -0.05 -0.570 -0.04    0.45  1.01   339 0.421 0.579
 3 rs10521279  0.12 -0.42   0.12    0.7   1      382 0.671 0.329
 4 rs10521294  0.05 -0.56   0.05    0.63  1.01   185 0.564 0.436
 5 rs1108574   0.1  -0.36   0.09    0.56  1      573 0.659 0.341
 6 rs1112899  -0.17 -0.77  -0.16    0.41  1.05   218 0.288 0.712
 7 rs1125338  -0.28 -0.7   -0.28    0.12  1.02   699 0.092 0.908
 8 rs11639567 -0.27 -0.77  -0.27    0.21  1      526 0.135 0.865
 9 rs11642776 -0.03 -0.62  -0.04    0.6   1.01   171 0.447 0.553
10 rs11859998 -0.01 -0.62   0       0.6   1      160 0.501 0.499
# ... with 62 more rows
…
 [1] "tumor"   "tumor"   "tumor"   "healthy" "healthy" "healthy" "tumor"  
 [8] "healthy" "healthy" "healthy" "healthy" "tumor"   "healthy" "tumor"  
[15] "tumor"   "tumor"   "tumor"   "tumor"   "tumor"   "tumor"   "tumor"  
[22] "tumor"   "tumor"   "tumor"   "tumor"   "tumor"   "tumor"   "tumor"  
[29] "tumor"   "tumor"   "tumor"   "tumor"   "tumor"   "tumor"   "tumor"  
[36] "tumor"   "tumor"   "tumor"   "tumor"   "tumor"   "tumor"   "tumor"  
[43] "tumor"   "tumor"   "tumor"   "tumor"   "tumor"  

The prior matrix with miRNAs that target our set of genes is obtained from the downloaded information obtained at TargetScan.

data("targets.hs.6.2", package="HOmics")

targets

# A tibble: 718,233 x 11
   `miR Family` `Gene ID` `Gene Symbol` `Transcript ID` `Species ID`
   <chr>        <chr>     <chr>         <chr>                  <dbl>
 1 miR-23-3p    ENSG0000~ A1BG          ENST0000026310~         9606
 2 miR-23       ENSG0000~ A1BG          ENST0000026310~         9598
 3 miR-23-3p    ENSG0000~ A1BG          ENST0000026310~         9544
 4 miR-23       ENSG0000~ A1BG          ENST0000026310~         9615
 5 miR-302-3p/~ ENSG0000~ A1CF          ENST0000037400~         9544
 6 miR-302c-3p~ ENSG0000~ A1CF          ENST0000037400~         9606
 7 miR-520      ENSG0000~ A1CF          ENST0000037400~         9598
 8 miR-15/16/1~ ENSG0000~ A1CF          ENST0000037400~         9913
 9 miR-15/16/1~ ENSG0000~ A1CF          ENST0000037400~         9615
10 miR-153      ENSG0000~ A1CF          ENST0000037400~         9598
# ... with 718,223 more rows, and 6 more variables: `UTR start` <dbl>, `UTR
#   end` <dbl>, `MSA start` <dbl>, `MSA end` <dbl>, `Seed match` <chr>,
#   PCT <chr>
…
[1] 24

expr.m <- expr.m[common.genes,]
z.matrix <- z.matrix[common.genes,]

mod.ov <- HOmics(data.matrix = expr.m,
              cond = cond,
              z.matrix = z.matrix)

univariate analysis will be performed for each feature
cond is a factor, it has been converted to a numerical vector of 0s and 1s with healthy as the reference level. A hierarchical logistic model will be fitted

mod.ov$results[[1]]

# A tibble: 24 x 9
   feature  mean `2.5%` `50%` `97.5%`  Rhat n.eff p.pos  p.neg
   <chr>   <dbl>  <dbl> <dbl>   <dbl> <dbl> <dbl> <dbl>  <dbl>
 1 ALK      3.59   1.24  3.29    7.46  1.05    16 1     0     
 2 CDH6     0.74   0.08  0.72    1.5   1.1     58 0.989 0.011 
 3 CLIC5    2.02   1.09  1.92    3.48  1.14    39 1     0     
 4 DOK5     0.46  -0.05  0.46    0.96  1.05    74 0.959 0.0407
 5 EMX2    -1.4   -2.38 -1.39   -0.55  1.06    23 0     1     
 6 ESR1    -2.29  -3.8  -2.27   -0.94  1.43    13 0     1     
 7 FGF18    1.21   0.42  1.19    2.09  1.02    83 0.998 0.0022
 8 GPR12   -0.12  -1.51 -0.18    1.38  1.01    53 0.410 0.590 
 9 HOXD1   -0.13  -0.62 -0.13    0.4   1.03   106 0.297 0.703 
10 HOXD3   -0.14  -0.63 -0.14    0.3   1.04   114 0.293 0.707 
# ... with 14 more rows
…
